<?xml version="1.0" standalone="no"?>
<!DOCTYPE svg PUBLIC "-//W3C//DTD SVG 1.1//EN" "http://www.w3.org/Graphics/SVG/1.1/DTD/svg11.dtd">
<svg xmlns="http://www.w3.org/2000/svg">
<metadata>Copyright (C) 2022 by original authors @ fontello.com</metadata>
<defs>
<font id="fontello" horiz-adv-x="1000" >
<font-face font-family="fontello" font-weight="400" font-stretch="normal" units-per-em="1000" ascent="850" descent="-150" />
<missing-glyph horiz-adv-x="1000" />
<glyph glyph-name="download" unicode="&#xe800;" d="M714 100q0 15-10 25t-25 11-25-11-11-25 11-25 25-11 25 11 10 25z m143 0q0 15-10 25t-26 11-25-11-10-25 10-25 25-11 26 11 10 25z m72 125v-179q0-22-16-37t-38-16h-821q-23 0-38 16t-16 37v179q0 22 16 38t38 16h259l75-76q33-32 76-32t76 32l76 76h259q22 0 38-16t16-38z m-182 318q10-23-8-39l-250-250q-10-11-25-11t-25 11l-250 250q-17 16-8 39 10 21 33 21h143v250q0 15 11 25t25 11h143q14 0 25-11t10-25v-250h143q24 0 33-21z" horiz-adv-x="928.6" />

<glyph glyph-name="facebook-circled" unicode="&#xe801;" d="M800 683q138-138 138-333 0-193-138-331t-331-138q-195 0-333 138-136 136-136 331 0 197 136 333 135 136 333 136 195 0 331-136z m-384-271q0 61 39 104t98 43l72 0 0-105-72 0q-13 0-22-9t-10-22l0-73 104 0 0-103-104 0 0-258q117 15 205 104 108 107 108 257 0 153-108 259t-257 106q-153 0-259-106t-106-259q0-150 106-257 89-89 206-104l0 258-103 0 0 103 103 0 0 62z" horiz-adv-x="938" />

<glyph glyph-name="twitter-circled" unicode="&#xe802;" d="M475 408q0 35 25 60t61 25 62-26q27 6 53 20-10-30-36-47 30 4 49 14-16-24-44-45l0-11q0-133-111-205-56-38-131-38-72 0-132 39 4-1 22-1 58 0 106 36-29 1-51 18t-29 42q5-2 15-2 15 0 22 2-28 6-48 29t-19 56q14-7 39-10-39 28-39 71 0 20 12 43 69-85 177-89-3 10-3 19z m-6-527q-195 0-333 138-136 136-136 331 0 197 136 333 135 136 333 136 195 0 331-136 138-138 138-333 0-193-138-331t-331-138z m0 834q-153 0-259-106t-106-259q0-150 106-257t259-108q150 0 257 108t108 257q0 153-108 259t-257 106z" horiz-adv-x="938" />

<glyph glyph-name="linkedin-circled" unicode="&#xe803;" d="M366 178l-83 0 0 271 83 0 0-271z m-86 347q0 18 13 30t32 13q45 0 45-43 0-41-45-41t-45 41z m298-68q47 0 72-33t25-86l0-160-85 0 0 151q0 60-41 60-21 0-35-14t-13-40l0-157-85 0 0 185q0 70-1 86l73 0 5-36q28 44 85 44z m-109-576q-194 0-331 138t-138 331 138 332 331 137 331-137 138-332-138-331-331-138z m0 834q-151 0-258-107t-107-258 107-258 258-107 258 107 107 258-107 258-258 107z" horiz-adv-x="938" />

<glyph glyph-name="dribbble-circled" unicode="&#xe804;" d="M469-119q-194 0-331 138t-138 331 138 332 331 137 331-137 138-332-138-331-331-138z m0 834q-151 0-258-107t-107-258 107-258 258-107 258 107 107 258-107 258-258 107z m0-78q119 0 202-85t84-202-84-202-202-84-203 84-83 202 83 202 203 85z m234-282q-3 90-64 157-46-63-120-108 19-40 22-51 80 17 162 2z m-104 190q-60 40-130 40-21 0-61-10 50-57 87-125 60 35 104 95z m-243 10q-91-50-115-152 104-20 208 24-40 71-93 128z m-121-205q0-91 63-157 73 101 193 145-2 6-5 13t-7 15-6 13q-82-35-165-35-32 0-73 6z m101-192q62-43 133-43 34 0 71 13-5 77-31 161-109-39-173-131z m254-8q88 54 109 153-75 14-140 1 24-81 31-154z" horiz-adv-x="938" />

<glyph glyph-name="basket" unicode="&#xe805;" d="M357-7q0-29-21-50t-50-22-50 22-22 50 22 50 50 21 50-21 21-50z m500 0q0-29-21-50t-50-22-50 22-22 50 22 50 50 21 50-21 21-50z m72 607v-286q0-13-10-23t-22-12l-583-68q7-34 7-40 0-8-13-35h513q15 0 26-11t10-25-10-25-26-11h-571q-14 0-25 11t-11 25q0 6 5 18t9 20 12 22 8 17l-98 459h-114q-15 0-25 10t-11 25 11 26 25 10h143q9 0 16-3t10-9 8-14 4-14 3-17 3-14h670q14 0 25-11t11-25z" horiz-adv-x="928.6" />

<glyph glyph-name="laptop" unicode="&#xe806;" d="M0 47l0 88 1000 0 0-88-51-52-898 0z m100 135l0 524 800 0 0-524-800 0z m99 96l602 0 0 334-602 0 0-334z m209-252l184 0 0 80-184 0 0-80z" horiz-adv-x="1000" />

<glyph glyph-name="lock" unicode="&#xe807;" d="M179 421h285v108q0 59-42 101t-101 41-101-41-41-101v-108z m464-53v-322q0-22-16-37t-38-16h-535q-23 0-38 16t-16 37v322q0 22 16 38t38 15h17v108q0 102 74 176t176 74 177-74 73-176v-108h18q23 0 38-15t16-38z" horiz-adv-x="642.9" />

<glyph glyph-name="plus" unicode="&#xe808;" d="M911 462l0-223-335 0 0-336-223 0 0 336-335 0 0 223 335 0 0 335 223 0 0-335 335 0z" horiz-adv-x="928" />

<glyph glyph-name="twitter" unicode="&#xe809;" d="M456 539q0 80 57 135t137 56q85 0 139-59 60 13 122 45-20-67-83-106 53 8 110 31-39-58-97-101l0-24q0-136-60-255-60-121-190-206t-296-85q-162 0-295 86 20-2 48-2 133 0 237 81-65 1-113 40t-66 95q13-5 35-5t50 6q-65 14-108 67t-44 125q36-20 86-24-86 60-86 161 0 48 26 95 158-191 398-199-7 22-7 43z" horiz-adv-x="938" />

<glyph glyph-name="chat" unicode="&#xe80a;" d="M85 749l608 0c57 0 83-26 83-85l0-387c0-55-26-82-83-82l-274 0-303-244 63 244-94 0c-57 0-85 27-85 84l0 385c0 59 28 86 85 85z m75-157l0-83 456 0 0 83-456 0z m456-239l0 82-456 0 0-82 456 0z" horiz-adv-x="776" />

<glyph glyph-name="cancel" unicode="&#xe80b;" d="M799 116l-156-157-234 235-235-235-156 157 234 234-234 234 156 157 235-235 234 235 156-157-234-234z" horiz-adv-x="817" />

<glyph glyph-name="cancel-circled" unicode="&#xe80c;" d="M469 819q194 0 331-137t138-332-138-331-331-138-331 138-138 331 138 332 331 137z m0-834q151 0 258 107t107 258-107 258-258 107-258-107-107-258 107-258 258-107z m36 365l139-137q12-13 5-29t-24-16q-11 0-19 7l-137 139-138-139q-7-7-18-7-17 0-24 16t5 29l139 137-139 138q-18 17 1 36t36 1l138-138 137 138q18 18 37-1t1-36z" horiz-adv-x="938" />

<glyph glyph-name="ok-circled2" unicode="&#xe80d;" d="M0 350q0 207 147 354t353 146 354-146 146-354-146-354-354-146-353 146-147 354z m109 0q0-162 115-276t276-115 276 115 115 276-115 276-276 115-276-115-115-276z m106-51l94 92 93-94 289 291 94-93-291-289-92-94-93 94z" horiz-adv-x="1000" />

<glyph glyph-name="torso" unicode="&#xe80e;" d="M0-150l0 358 338 144q-61 37-92 101t-31 133q0 104 64 184t162 80q102-4 164-83t63-181q-2-74-33-136t-86-98l334-144 0-358-883 0z" horiz-adv-x="883" />

<glyph glyph-name="down-open" unicode="&#xe80f;" d="M939 399l-414-413q-10-11-25-11t-25 11l-414 413q-11 11-11 26t11 25l93 92q10 11 25 11t25-11l296-296 296 296q11 11 25 11t26-11l92-92q11-11 11-25t-11-26z" horiz-adv-x="1000" />

<glyph glyph-name="eye" unicode="&#xe810;" d="M929 314q-85 132-213 197 34-58 34-125 0-103-73-177t-177-73-177 73-73 177q0 67 34 125-128-65-213-197 75-114 187-182t242-68 243 68 186 182z m-402 215q0 11-8 19t-19 7q-70 0-120-50t-50-119q0-11 8-19t19-8 19 8 8 19q0 48 34 82t82 34q11 0 19 8t8 19z m473-215q0-19-11-38-78-129-210-206t-279-77-279 77-210 206q-11 19-11 38t11 39q78 128 210 205t279 78 279-78 210-205q11-20 11-39z" horiz-adv-x="1000" />

<glyph glyph-name="eye-off" unicode="&#xe811;" d="M310 105l43 79q-48 35-76 88t-27 114q0 67 34 125-128-65-213-197 94-144 239-209z m217 424q0 11-8 19t-19 7q-70 0-120-50t-50-119q0-11 8-19t19-8 19 8 8 19q0 48 34 82t82 34q11 0 19 8t8 19z m202 106q0-4 0-5-59-105-176-316t-176-316l-28-50q-5-9-15-9-7 0-75 39-9 6-9 16 0 7 25 49-80 36-147 96t-117 137q-11 17-11 38t11 39q86 131 212 207t277 76q50 0 100-10l31 54q5 9 15 9 3 0 10-3t18-9 18-10 18-10 10-7q9-5 9-15z m21-249q0-78-44-142t-117-91l157 280q4-25 4-47z m250-72q0-19-11-38-22-36-61-81-84-96-194-149t-234-53l41 74q119 10 219 76t169 171q-65 100-158 164l35 63q53-36 102-85t81-103q11-19 11-39z" horiz-adv-x="1000" />

<glyph glyph-name="twitter-2" unicode="&#xf058;" d="M0 68q0-7 7-13 13-8 44-24 119-62 250-62 163 0 296 84 63 40 113 96t78 118 43 123 14 119v17q57 41 89 94 3 6 3 9 0 6-5 11t-11 5q-4 0-12-4-6-2-14-5t-15-5-8-3q13 15 26 39t14 35q0 6-5 11t-11 5q-4 0-8-3-56-29-104-40-59 56-141 56-84 0-143-59t-59-141q0-15 2-24-83 7-159 39t-138 88q-14 14-55 57-6 6-13 6-6 0-13-8-12-19-20-46t-7-54q0-73 45-127l-14 7q-12 5-18 5-8 0-14-5t-5-12q0-52 26-97t71-74l-5 1q-1 0-3 1t-3 1-1 0q-7 0-11-5t-5-11q0 0 1-5 17-51 55-86t90-48q-84-52-187-52-7 0-22 1-20 1-22 1-7 0-11-5t-5-11z" horiz-adv-x="937.5" />

<glyph glyph-name="twitter-3" unicode="&#xf099;" d="M904 622q-37-54-90-93 0-8 0-23 0-73-21-145t-64-139-103-117-144-82-181-30q-151 0-276 81 19-2 43-2 126 0 224 77-59 1-105 36t-64 89q19-3 34-3 24 0 48 6-63 13-104 62t-41 115v2q38-21 82-23-37 25-59 64t-22 86q0 49 25 91 68-83 164-133t208-55q-5 21-5 41 0 75 53 127t127 53q79 0 132-57 61 12 115 44-21-64-80-100 52 6 104 28z" horiz-adv-x="928.6" />

<glyph glyph-name="menu" unicode="&#xf0c9;" d="M857 100v-71q0-15-10-25t-26-11h-785q-15 0-25 11t-11 25v71q0 15 11 25t25 11h785q15 0 26-11t10-25z m0 286v-72q0-14-10-25t-26-10h-785q-15 0-25 10t-11 25v72q0 14 11 25t25 10h785q15 0 26-10t10-25z m0 285v-71q0-14-10-25t-26-11h-785q-15 0-25 11t-11 25v71q0 15 11 26t25 10h785q15 0 26-10t10-26z" horiz-adv-x="857.1" />

<glyph glyph-name="circle" unicode="&#xf111;" d="M857 350q0-117-57-215t-156-156-215-58-216 58-155 156-58 215 58 215 155 156 216 58 215-58 156-156 57-215z" horiz-adv-x="857.1" />

<glyph glyph-name="google" unicode="&#xf1a0;" d="M429 411h404q7-37 7-71 0-121-51-216t-145-149-215-54q-88 0-167 34t-137 91-91 137-34 167 34 167 91 137 137 91 167 34q167 0 287-113l-117-112q-68 67-170 67-72 0-133-37t-97-98-36-136 36-136 97-98 133-37q48 0 89 14t67 33 46 46 28 49 13 43h-243v147z" horiz-adv-x="857.1" />

<glyph glyph-name="twitter-1" unicode="&#xf309;" d="M920 636q-36-54-94-98l0-24q0-130-60-250t-186-203-290-83q-160 0-290 84 14-2 46-2 132 0 234 80-62 2-110 38t-66 94q10-4 34-4 26 0 50 6-66 14-108 66t-42 120l0 2q36-20 84-24-84 58-84 158 0 48 26 94 154-188 390-196-6 18-6 42 0 78 55 133t135 55q82 0 136-58 60 12 120 44-20-66-82-104 56 8 108 30z" horiz-adv-x="920" />

<glyph glyph-name="facebook" unicode="&#xf30c;" d="M500 644l-142 0q-14 0-25-15t-11-37l0-102 178 0 0-148-178 0 0-442-170 0 0 442-152 0 0 148 152 0 0 86q0 94 59 159t147 65l142 0 0-156z" horiz-adv-x="500" />

<glyph glyph-name="facebook-circled-1" unicode="&#xf30d;" d="M480 830q200 0 340-140t140-340q0-198-140-339t-340-141-340 141-140 339q0 200 140 340t340 140z m114-330l0 78-72 0q-44 0-74-33t-30-81l0-44-76 0 0-74 76 0 0-222 86 0 0 222 90 0 0 74-90 0 0 52q0 28 18 28l72 0z" horiz-adv-x="960" />

<glyph glyph-name="linkedin-circled-1" unicode="&#xf319;" d="M480 830q200 0 340-140t140-340q0-198-140-339t-340-141q-198 0-339 141t-141 339q0 200 141 340t339 140z m-118-678l0 312-96 0 0-312 96 0z m-48 352q52 0 52 48t-52 48q-22 0-37-14t-15-34q0-48 52-48z m404-352l0 184q0 66-31 101t-81 35q-66 0-96-50l-2 0-6 42-84 0q2-28 2-100l0-212 98 0 0 180q0 18 4 24 12 38 50 38 48 0 48-68l0-174 98 0z" horiz-adv-x="960" />
</font>
</defs>
</svg>
